[
  {
    "directory": "/home/user/Desktop/tictactoe-caf/build",
    "command": "c++ -Ixo@exe -I. -I.. -I../include -I/home/user/custom_libs/include -fdiagnostics-color=always -pipe -D_FILE_OFFSET_BITS=64 -Wall -Winvalid-pch -Wnon-virtual-dtor -std=c++14 -g -MD -MQ 'xo@exe/src_main.cpp.o' -MF 'xo@exe/src_main.cpp.o.d' -o 'xo@exe/src_main.cpp.o' -c ../src/main.cpp",
    "file": "../src/main.cpp"
  },
  {
    "directory": "/home/user/Desktop/tictactoe-caf/build",
    "command": "c++ -Ixo@exe -I. -I.. -I../include -I/home/user/custom_libs/include -fdiagnostics-color=always -pipe -D_FILE_OFFSET_BITS=64 -Wall -Winvalid-pch -Wnon-virtual-dtor -std=c++14 -g -MD -MQ 'xo@exe/src_xo.cpp.o' -MF 'xo@exe/src_xo.cpp.o.d' -o 'xo@exe/src_xo.cpp.o' -c ../src/xo.cpp",
    "file": "../src/xo.cpp"
  }
]
